{
  "name": "default",
  "type": "postgres",
  "host": "postgres",
  "port": 5432,
  "username": "postgres",
  "password": "postgres",
  "database": "postgres",
  "synchronize": true,
  "logging": true,
  "entities": ["src/entity/*.*"],
  "migrations": ["src/migration/**/*.ts"],
  "subscribers": ["src/subscriber/**/*.ts"],
  "cli": {
    "entitiesDir": "src/entity",
    "migrationsDir": "src/migration",
    "subscribersDir": "src/subscriber"
  }
}
